(module nRF24L01P_smd (layer F.Cu) (tedit 54A2D9FD)
  (fp_text reference nrf24L01P_smd (at 0.635 -7.62) (layer F.SilkS)
    (effects (font (size 1.5 1.5) (thickness 0.15)))
  )
  (fp_text value VAL** (at 0 7.62) (layer F.SilkS)
    (effects (font (size 1.5 1.5) (thickness 0.15)))
  )
  (fp_line (start 3.175 -4.445) (end 8.255 -4.445) (layer F.SilkS) (width 0.5))
  (fp_line (start 8.255 -4.445) (end 8.255 -2.54) (layer F.SilkS) (width 0.5))
  (fp_line (start 8.255 -2.54) (end 5.08 -2.54) (layer F.SilkS) (width 0.5))
  (fp_line (start 5.08 -2.54) (end 5.08 -0.635) (layer F.SilkS) (width 0.5))
  (fp_line (start 5.08 -0.635) (end 8.255 -0.635) (layer F.SilkS) (width 0.5))
  (fp_line (start 8.255 -0.635) (end 8.255 1.27) (layer F.SilkS) (width 0.5))
  (fp_line (start 8.255 1.27) (end 5.08 1.27) (layer F.SilkS) (width 0.5))
  (fp_line (start 5.08 1.27) (end 5.08 3.175) (layer F.SilkS) (width 0.5))
  (fp_line (start 5.08 3.175) (end 8.255 3.175) (layer F.SilkS) (width 0.5))
  (fp_line (start 8.255 3.175) (end 8.255 5.08) (layer F.SilkS) (width 0.5))
  (fp_line (start 8.255 3.175) (end 5.08 3.175) (layer F.SilkS) (width 0.3))
  (fp_line (start 5.08 3.175) (end 5.08 1.27) (layer F.SilkS) (width 0.3))
  (fp_line (start 5.08 1.27) (end 8.255 1.27) (layer F.SilkS) (width 0.3))
  (fp_line (start 8.255 1.27) (end 8.255 -0.635) (layer F.SilkS) (width 0.3))
  (fp_line (start 8.255 -0.635) (end 5.08 -0.635) (layer F.SilkS) (width 0.3))
  (fp_line (start 5.08 -0.635) (end 5.08 -2.54) (layer F.SilkS) (width 0.3))
  (fp_line (start 5.08 -2.54) (end 8.255 -2.54) (layer F.SilkS) (width 0.3))
  (fp_line (start 8.255 -2.54) (end 8.255 -4.445) (layer F.SilkS) (width 0.3))
  (fp_line (start 8.255 -4.445) (end 3.175 -4.445) (layer F.SilkS) (width 0.3))
  (fp_line (start 8.255 -0.635) (end 8.255 1.27) (layer F.SilkS) (width 0.15))
  (fp_line (start 8.255 1.27) (end 5.08 1.27) (layer F.SilkS) (width 0.15))
  (fp_line (start 5.08 1.27) (end 5.08 3.175) (layer F.SilkS) (width 0.15))
  (fp_line (start 5.08 3.175) (end 8.255 3.175) (layer F.SilkS) (width 0.15))
  (fp_line (start 8.255 3.175) (end 8.255 5.08) (layer F.SilkS) (width 0.3))
  (fp_line (start 5.08 -0.635) (end 5.08 -1.27) (layer F.SilkS) (width 0.15))
  (fp_line (start 3.175 -4.445) (end 8.255 -4.445) (layer F.SilkS) (width 0.15))
  (fp_line (start 8.255 -4.445) (end 8.255 -2.54) (layer F.SilkS) (width 0.15))
  (fp_line (start 8.255 -2.54) (end 5.08 -2.54) (layer F.SilkS) (width 0.15))
  (fp_line (start 5.08 -2.54) (end 5.08 -1.27) (layer F.SilkS) (width 0.15))
  (fp_line (start 5.08 -0.635) (end 8.255 -0.635) (layer F.SilkS) (width 0.15))
  (fp_line (start -3.81 3.81) (end -3.81 3.175) (layer F.SilkS) (width 0.15))
  (fp_line (start -3.81 3.175) (end -1.27 3.175) (layer F.SilkS) (width 0.15))
  (fp_line (start -1.27 3.175) (end -1.27 4.445) (layer F.SilkS) (width 0.15))
  (fp_line (start -1.27 4.445) (end -3.81 4.445) (layer F.SilkS) (width 0.15))
  (fp_line (start -3.81 4.445) (end -3.81 3.81) (layer F.SilkS) (width 0.15))
  (fp_line (start -4.445 -3.81) (end -1.27 -3.81) (layer F.SilkS) (width 0.15))
  (fp_line (start -1.27 -3.81) (end -1.27 -1.27) (layer F.SilkS) (width 0.15))
  (fp_line (start -1.27 -1.27) (end -4.445 -1.27) (layer F.SilkS) (width 0.15))
  (fp_line (start -4.445 -1.27) (end -4.445 -3.81) (layer F.SilkS) (width 0.15))
  (fp_line (start 9.525 -5.715) (end -8.255 -5.715) (layer F.SilkS) (width 0.15))
  (fp_line (start -8.255 5.715) (end 9.525 5.715) (layer F.SilkS) (width 0.15))
  (fp_line (start -8.255 -5.715) (end -8.255 5.715) (layer F.SilkS) (width 0.15))
  (fp_line (start 9.525 5.715) (end 9.525 -5.715) (layer F.SilkS) (width 0.15))
  (pad 1 smd rect (at -8.255 -4.445) (size 3.048 1.016) (layers F.Cu F.Paste F.Mask))
  (pad 2 smd rect (at -8.255 -3.175) (size 3.048 1.016) (layers F.Cu F.Paste F.Mask))
  (pad 3 smd rect (at -8.255 -1.905) (size 3.048 1.016) (layers F.Cu F.Paste F.Mask))
  (pad 4 smd rect (at -8.255 -0.635) (size 3.048 1.016) (layers F.Cu F.Paste F.Mask))
  (pad 5 smd rect (at -8.255 0.635) (size 3.048 1.016) (layers F.Cu F.Paste F.Mask))
  (pad 6 smd rect (at -8.255 1.905) (size 3.048 1.016) (layers F.Cu F.Paste F.Mask))
  (pad 7 smd rect (at -8.255 3.175) (size 3.048 1.016) (layers F.Cu F.Paste F.Mask))
  (pad 8 smd rect (at -8.255 4.445) (size 3.048 1.016) (layers F.Cu F.Paste F.Mask))
)
