(module MRF24J40MA_smd (layer F.Cu) (tedit 54A327E7)
  (fp_text reference MRF24J40MA_smd (at 8.89 -13.208) (layer F.SilkS)
    (effects (font (size 1.5 1.5) (thickness 0.15)))
  )
  (fp_text value VAL** (at 9.652 17.272) (layer F.SilkS)
    (effects (font (size 1.5 1.5) (thickness 0.15)))
  )
  (fp_line (start 8.89 -1.524) (end 8.89 -9.906) (layer F.SilkS) (width 2))
  (fp_line (start 1.524 -1.524) (end 1.524 -10.414) (layer F.SilkS) (width 2))
  (fp_line (start 1.524 -10.414) (end 16.256 -10.414) (layer F.SilkS) (width 2))
  (fp_line (start 16.256 -10.414) (end 16.256 -1.524) (layer F.SilkS) (width 2))
  (fp_line (start 5.08 0) (end 10.414 3.556) (layer F.SilkS) (width 0.15))
  (fp_line (start 5.08 3.556) (end 10.414 0) (layer F.SilkS) (width 0.15))
  (fp_line (start 5.08 3.556) (end 5.08 0) (layer F.SilkS) (width 0.15))
  (fp_line (start 5.08 0) (end 10.414 0) (layer F.SilkS) (width 0.15))
  (fp_line (start 10.414 0) (end 10.414 3.556) (layer F.SilkS) (width 0.15))
  (fp_line (start 10.414 3.556) (end 5.08 3.556) (layer F.SilkS) (width 0.15))
  (fp_line (start 0 0) (end 17.78 0) (layer F.SilkS) (width 0.15))
  (fp_line (start 17.78 9.652) (end 17.78 16.002) (layer F.SilkS) (width 0.15))
  (fp_line (start 0 16.002) (end 0 -11.938) (layer F.SilkS) (width 0.15))
  (fp_line (start 0 16.002) (end 17.78 16.002) (layer F.SilkS) (width 0.15))
  (fp_line (start 17.78 9.652) (end 17.78 -11.938) (layer F.SilkS) (width 0.15))
  (fp_line (start 17.78 -11.938) (end 0 -11.938) (layer F.SilkS) (width 0.15))
  (pad 6 smd rect (at -0.508 14.478) (size 3.048 2.032) (layers F.Cu F.Paste F.Mask))
  (pad 5 smd rect (at -0.508 11.938) (size 3.048 2.032) (layers F.Cu F.Paste F.Mask))
  (pad 4 smd rect (at -0.508 9.398) (size 3.048 2.032) (layers F.Cu F.Paste F.Mask))
  (pad 3 smd rect (at -0.508 6.858) (size 3.048 2.032) (layers F.Cu F.Paste F.Mask))
  (pad 2 smd rect (at -0.508 4.318) (size 3.048 2.032) (layers F.Cu F.Paste F.Mask))
  (pad 1 smd rect (at -0.508 1.778) (size 3.048 2.032) (layers F.Cu F.Paste F.Mask))
  (pad 7 smd rect (at 18.288 14.478) (size 3.048 2.032) (layers F.Cu F.Paste F.Mask))
  (pad 8 smd rect (at 18.288 11.938) (size 3.048 2.032) (layers F.Cu F.Paste F.Mask))
  (pad 9 smd rect (at 18.288 9.398) (size 3.048 2.032) (layers F.Cu F.Paste F.Mask))
  (pad 10 smd rect (at 18.288 6.858) (size 3.048 2.032) (layers F.Cu F.Paste F.Mask))
  (pad 11 smd rect (at 18.288 4.318) (size 3.048 2.032) (layers F.Cu F.Paste F.Mask))
  (pad 12 smd rect (at 18.288 1.778) (size 3.048 2.032) (layers F.Cu F.Paste F.Mask))
)
